lab2/simulation/qsim/lab2.msim.vcd
$comment
	File created using the following command:
		vcd file lab2.msim.vcd -direction
$end
$date
	Fri Sep 18 20:56:00 2020
$end
$version
	ModelSim Version 10.5b
$end
$timescale
	1ps
$end

$scope module lab2_vlg_vec_tst $end
$var reg 1 ! CLOCK $end
$var reg 1 " DIN0 $end
$var reg 1 # DIN1 $end
$var reg 1 $ FETCH $end
$var reg 1 % HIGH $end
$var reg 1 & LDSBR $end
$var reg 1 ' LOW $end
$var reg 1 ( SAR0 $end
$var reg 1 ) SAR1 $end
$var reg 1 * STORE $end
$var wire 1 + AEBOUT $end
$var wire 1 , Q10 $end
$var wire 1 - Q11 $end
$var wire 1 . Q12 $end
$var wire 1 / Q13 $end
$var wire 1 0 SBR0 $end
$var wire 1 1 SBR1 $end
$var wire 1 2 select $end

$scope module i1 $end
$var wire 1 3 gnd $end
$var wire 1 4 vcc $end
$var wire 1 5 unknown $end
$var tri1 1 6 devclrn $end
$var tri1 1 7 devpor $end
$var tri1 1 8 devoe $end
$var wire 1 9 SBR1~output_o $end
$var wire 1 : SBR0~output_o $end
$var wire 1 ; Q10~output_o $end
$var wire 1 < Q11~output_o $end
$var wire 1 = Q12~output_o $end
$var wire 1 > Q13~output_o $end
$var wire 1 ? AEBOUT~output_o $end
$var wire 1 @ select~output_o $end
$var wire 1 A CLOCK~input_o $end
$var wire 1 B CLOCK~inputclkctrl_outclk $end
$var wire 1 C LOW~input_o $end
$var wire 1 D STORE~input_o $end
$var wire 1 E SAR0~input_o $end
$var wire 1 F HIGH~input_o $end
$var wire 1 G inst2|94~combout $end
$var wire 1 H inst2|26~0_combout $end
$var wire 1 I inst2|86~combout $end
$var wire 1 J inst2|86~clkctrl_outclk $end
$var wire 1 K inst2|26~q $end
$var wire 1 L inst2|93~combout $end
$var wire 1 M inst2|25~0_combout $end
$var wire 1 N inst2|25~q $end
$var wire 1 O SAR1~input_o $end
$var wire 1 P inst3|4~0_combout $end
$var wire 1 Q inst3|4~combout $end
$var wire 1 R inst1|37~0_combout $end
$var wire 1 S HIGH~inputclkctrl_outclk $end
$var wire 1 T inst1|41~q $end
$var wire 1 U inst1|36~0_combout $end
$var wire 1 V inst1|40~q $end
$var wire 1 W inst1|35~0_combout $end
$var wire 1 X inst1|39~q $end
$var wire 1 Y inst1|34~0_combout $end
$var wire 1 Z inst1|38~q $end
$var wire 1 [ LDSBR~input_o $end
$var wire 1 \ DIN1~input_o $end
$var wire 1 ] inst10|10~0_combout $end
$var wire 1 ^ FETCH~input_o $end
$var wire 1 _ inst5|sub|110~combout $end
$var wire 1 ` inst10|10~1_combout $end
$var wire 1 a inst10|10~2_combout $end
$var wire 1 b inst10|10~3_combout $end
$var wire 1 c inst9|10~q $end
$var wire 1 d DIN0~input_o $end
$var wire 1 e inst10|9~0_combout $end
$var wire 1 f inst|37~0_combout $end
$var wire 1 g inst|41~q $end
$var wire 1 h inst|36~0_combout $end
$var wire 1 i inst|40~q $end
$var wire 1 j inst|35~0_combout $end
$var wire 1 k inst|39~q $end
$var wire 1 l inst|34~0_combout $end
$var wire 1 m inst|38~q $end
$var wire 1 n inst10|9~1_combout $end
$var wire 1 o inst9|9~q $end
$upscope $end
$upscope $end
$enddefinitions $end
#0
$dumpvars
1!
0"
1#
0$
1%
1&
0'
0(
0)
0*
1+
0,
0-
0.
0/
00
01
02
03
14
x5
16
17
18
09
0:
0;
0<
0=
0>
1?
0@
1A
1B
0C
0D
0E
1F
1G
1H
0I
0J
0K
0L
1M
0N
0O
1P
0Q
0R
1S
0T
0U
0V
0W
0X
0Y
0Z
1[
1\
1]
0^
0_
1`
0a
1b
0c
0d
0e
0f
0g
0h
0i
0j
0k
0l
0m
0n
0o
$end
#5000
0!
0A
0B
0G
#10000
1!
1A
1B
1G
1K
1c
19
1_
11
0H
0?
0+
#15000
0!
0A
0B
1L
0G
#20000
1!
1A
1B
0L
1G
1N
0K
0P
0M
1H
#25000
0!
0A
0B
0G
#30000
0&
1!
0[
1A
1B
1G
1K
0H
#35000
0!
0A
0B
1L
0G
#40000
0#
1&
1!
0\
1[
1A
1B
0]
0L
1G
0b
0N
0K
0_
1P
1M
1H
1?
1+
#45000
0!
0A
0B
0G
#50000
1!
1A
1B
1G
1K
0c
09
1_
01
0H
0?
0+
#55000
0!
0A
0B
1L
0G
#60000
1!
1A
1B
0L
1G
1N
0K
0P
0M
1H
#65000
0!
0A
0B
0G
#70000
0&
1!
0[
1A
1B
1G
1K
0H
#75000
0!
0A
0B
1L
0G
#80000
1"
1&
1!
1d
1[
1A
1B
1e
0L
1G
1n
0N
0K
0_
1P
1M
1H
1?
1+
#85000
0!
0A
0B
0G
#90000
1!
1A
1B
1G
1K
1o
1:
1_
10
0H
0?
0+
#95000
0!
0A
0B
1L
0G
#100000
1!
1A
1B
0L
1G
1N
0K
0P
0M
1H
#105000
0!
0A
0B
0G
#110000
0&
1!
0[
1A
1B
1G
1K
0H
#115000
0!
0A
0B
1L
0G
#120000
1#
1&
1!
1\
1[
1A
1B
1]
0L
1G
1b
0N
0K
0_
1P
1M
1H
1?
1+
#125000
0!
0A
0B
0G
#130000
1!
1A
1B
1G
1K
1c
19
1_
11
0H
0?
0+
#135000
0!
0A
0B
1L
0G
#140000
1!
1A
1B
0L
1G
1N
0K
0P
0M
1H
#145000
0!
0A
0B
0G
#150000
0&
1!
0[
1A
1B
1G
1K
0H
#155000
0!
0A
0B
1L
0G
#160000
0"
0#
1!
0d
0\
1A
1B
0L
1G
0N
0K
0_
1P
1M
1H
1?
1+
#165000
0!
0A
0B
0G
#170000
1!
1A
1B
1G
1K
1_
0H
0?
0+
#175000
0!
0A
0B
1L
0G
#180000
1!
1A
1B
0L
1G
1N
0K
0P
0M
1H
#185000
0!
0A
0B
0G
#190000
1(
1)
1!
1E
1O
1A
1B
1P
1G
1K
0_
0H
1?
1+
#195000
0!
0A
0B
1L
0G
#200000
1*
1!
1D
1A
1B
0L
1Q
1G
1@
12
1f
1R
0N
0K
1_
0P
1M
0Q
1H
0@
0?
0+
02
0f
0R
#205000
0!
0A
0B
0G
#210000
1!
1A
1B
1G
1K
0H
#215000
0!
0A
0B
1L
0G
#220000
1!
1A
1B
0L
1G
1N
0K
1P
0M
1H
#225000
0!
0A
0B
0G
#230000
1!
1A
1B
1G
1K
0_
1Q
0H
1@
1?
1+
12
1f
1R
#235000
0!
0A
0B
1L
0G
#240000
0*
1!
0D
1A
1B
0L
0Q
1G
0@
02
0f
0R
0N
0K
1g
1T
1_
0P
1M
1H
1h
1U
0?
0+
#245000
0!
0A
0B
0G
#250000
1&
1"
1!
1[
1d
1A
1B
0]
1G
0b
1K
1i
0g
1V
0T
0H
1j
0h
1W
0U
#255000
0!
0A
0B
1L
0G
#260000
1!
1A
1B
0L
1G
1N
0K
1k
0i
1X
0V
0c
09
1P
01
0M
1H
1l
0j
1Y
0W
#265000
0!
0A
0B
0G
#270000
1!
1A
1B
1G
1K
1m
0k
1Z
0X
0_
0H
1f
0l
1R
0Y
1?
1+
#275000
0!
0A
0B
1L
0G
#280000
0)
0&
1!
0O
0[
1A
1B
1_
0P
0L
1G
0?
0+
0N
0K
0m
1g
0Z
1T
1P
1M
1H
0f
1h
0R
1U
#285000
0!
0A
0B
0G
#290000
1*
0"
1!
1D
0d
1A
1B
1G
1K
1i
0g
1V
0T
0_
1Q
0H
1j
0h
1W
0U
1@
1?
1+
12
1f
#295000
0!
0A
0B
1L
0G
#300000
1!
1A
1B
0L
1G
1N
0K
1k
0i
1g
1X
0V
1_
0P
0M
0Q
1H
1l
0j
1h
1Y
0W
0@
0?
0+
02
0f
#305000
0!
0A
0B
0G
#310000
1!
1A
1B
1G
1K
1m
0k
1i
0g
1Z
0X
0H
1f
0l
1j
0h
1R
0Y
#315000
0!
0A
0B
1L
0G
#320000
1!
1A
1B
0L
1G
0N
0K
0m
1k
0i
1g
0Z
1T
1P
1M
1H
0f
1l
0j
1h
0R
1U
#325000
0!
0A
0B
0G
#330000
0*
1!
0D
1A
1B
1G
1K
1m
0k
1i
0g
1V
0T
0_
0H
1f
0l
1j
0h
1W
0U
1?
1+
#335000
0!
0A
0B
1L
0G
#340000
1&
1!
1[
1A
1B
0e
0L
1G
0n
1N
0K
0m
1k
0i
1g
1X
0V
1_
0P
0M
1H
0f
1l
0j
1h
1Y
0W
0?
0+
#345000
0!
0A
0B
0G
#350000
1!
1A
1B
1G
1K
1m
0k
1i
0g
1Z
0X
0o
0:
00
0H
1f
0l
1j
0h
1R
0Y
#355000
0!
0A
0B
1L
0G
#360000
1!
1A
1B
0L
1G
0N
0K
0m
1k
0i
1g
0Z
1T
1P
1M
1H
0f
1l
0j
1h
0R
1U
#365000
0!
0A
0B
0G
#370000
0(
0&
1!
0E
0[
1A
1B
0_
1G
1?
1+
1K
1m
0k
1i
0g
1V
0T
1_
0H
1f
0l
1j
0h
1W
0U
0?
0+
#375000
0!
0A
0B
1L
0G
#380000
1*
1!
1D
1A
1B
0L
1G
1N
0K
0m
1k
0i
1g
1X
0V
0P
0M
1Q
1H
0f
1l
0j
1h
1Y
0W
1@
12
0Q
0@
02
#385000
0!
0A
0B
0G
#390000
1!
1A
1B
1G
1K
1m
0k
1i
0g
1Z
0X
0H
1f
0l
1j
0h
1R
0Y
#395000
0!
0A
0B
1L
0G
#400000
1!
1A
1B
0L
1G
0N
0K
0m
1k
0i
1g
0Z
1T
0_
1P
1M
1H
0f
1l
0j
1h
0R
1U
1?
1+
1Q
1@
12
#405000
0!
0A
0B
0G
#410000
1!
1A
1B
1G
1K
1m
0k
1i
0g
1V
0T
1_
0Q
0H
0l
1j
0h
1W
0U
0@
0?
0+
02
1f
#415000
0!
0A
0B
1L
0G
#420000
0*
1!
0D
1A
1B
0L
1G
1N
0K
0m
1k
0i
1g
1X
0V
0P
0M
1H
0f
1l
0j
1h
1Y
0W
#425000
0!
0A
0B
0G
#430000
1#
1&
1!
1\
1[
1A
1B
1]
1G
1b
1K
1m
0k
1i
0g
1Z
0X
0H
1f
0l
1j
0h
1R
0Y
#435000
0!
0A
0B
1L
0G
#440000
1!
1A
1B
0L
1G
0N
0K
0m
1k
0i
1g
0Z
1T
1c
19
0_
1P
11
1M
1H
0f
1l
0j
1h
0R
1U
1?
1+
#445000
0!
0A
0B
0G
#450000
1!
1A
1B
1G
1K
1m
0k
1i
0g
1V
0T
1_
0H
1f
0l
1j
0h
1W
0U
0?
0+
#455000
0!
0A
0B
1L
0G
#460000
1)
0&
1!
1O
0[
1A
1B
0P
0L
1G
1N
0K
0m
1k
0i
1g
1X
0V
0_
1P
0M
1H
0f
1l
0j
1h
1Y
0W
1?
1+
#465000
0!
0A
0B
0G
#470000
1*
0#
1!
1D
0\
1A
1B
1Q
1G
1@
12
1R
1K
1m
0k
1i
0g
1Z
0X
1_
0Q
0H
0l
1j
0h
0Y
0@
0?
0+
02
1f
#475000
0!
0A
0B
1L
0G
#480000
1!
1A
1B
0L
1G
0N
0K
0m
1k
0i
1g
0Z
1T
0P
1M
1Q
1H
0f
1l
0j
1h
0R
1U
1@
12
0Q
1R
0@
02
0R
#485000
0!
0A
0B
0G
#490000
1!
1A
1B
1G
1K
1m
0k
1i
0g
1V
0T
0H
1f
0l
1j
0h
1W
0U
#495000
0!
0A
0B
1L
0G
#500000
1!
1A
1B
0L
1G
1N
0K
0m
1k
0i
1g
1X
0V
0_
1P
0M
1H
0f
1l
0j
1h
1Y
0W
1?
1+
1Q
1@
12
1R
#505000
0!
0A
0B
0G
#510000
0*
1!
0D
1A
1B
0Q
1G
0@
02
0R
1K
1m
0k
1i
0g
1Z
0X
1T
1_
0H
1f
0l
1j
0h
1R
0Y
1U
0?
0+
#515000
0!
0A
0B
1L
0G
#520000
1!
1A
1B
0L
1G
0N
0K
0m
1k
0i
1g
0Z
1V
0P
1M
1H
0f
1l
0j
1h
0R
1W
#525000
0!
0A
0B
0G
#530000
1!
1A
1B
1G
1K
1m
0k
1i
0g
1X
0T
0H
1f
0l
1j
0h
1Y
0U
#535000
0!
0A
0B
1L
0G
#540000
1!
1A
1B
0L
1G
1N
0K
0m
1k
0i
1g
1Z
0V
0_
1P
0M
1H
0f
1l
0j
1h
1R
0W
1?
1+
#545000
0!
0A
0B
0G
#550000
0)
1!
0O
1A
1B
1_
0P
1G
0?
0+
1K
1m
0k
1i
0g
0X
1T
0H
1f
0l
1j
0h
0Y
1U
#555000
0!
0A
0B
1L
0G
#560000
1!
1A
1B
0L
1G
0N
0K
0m
1k
0i
1g
0Z
1V
0_
1P
1M
1H
0f
1l
0j
1h
0R
1W
1?
1+
#565000
0!
0A
0B
0G
#570000
1!
1A
1B
1G
1K
1m
0k
1i
0g
1X
0T
1_
0H
1f
0l
1j
0h
1Y
0U
0?
0+
#575000
0!
0A
0B
1L
0G
#580000
1!
1A
1B
0L
1G
1N
0K
0m
1k
0i
1g
1Z
0V
0P
0M
1H
0f
1l
0j
1h
1R
0W
#585000
0!
0A
0B
0G
#590000
1!
1A
1B
1G
1K
1m
0k
1i
0g
0X
1T
0H
1f
0l
1j
0h
0Y
1U
#595000
0!
0A
0B
1L
0G
#600000
1!
1A
1B
0L
1G
0N
0K
0m
1k
0i
1g
0Z
1V
0_
1P
1M
1H
0f
1l
0j
1h
0R
1W
1?
1+
#605000
0!
0A
0B
0G
#610000
1!
1A
1B
1G
1K
1m
0k
1i
0g
1X
0T
1_
0H
1f
0l
1j
0h
1Y
0U
0?
0+
#615000
0!
0A
0B
1L
0G
#620000
1!
1A
1B
0L
1G
1N
0K
0m
1k
0i
1g
1Z
0V
0P
0M
1H
0f
1l
0j
1h
1R
0W
#625000
0!
0A
0B
0G
#630000
1(
1)
1!
1E
1O
1A
1B
1P
1G
1K
1m
0k
1i
0g
0X
1T
0_
0H
1f
0l
1j
0h
0Y
1U
1?
1+
#635000
0!
0A
0B
1L
0G
#640000
1$
1!
1^
1A
1B
1a
0`
0L
1G
1n
0N
0K
0m
1k
0i
1g
0Z
1V
1_
0P
1M
1H
0n
0f
1l
0j
1h
0b
0R
1W
0?
0a
1`
0+
1b
#645000
0!
0A
0B
0G
#650000
1!
1A
1B
1G
1K
1m
0k
1i
0g
1X
0T
0H
1f
0l
1j
0h
1Y
0U
#655000
0!
0A
0B
1L
0G
#660000
1!
1A
1B
0L
1G
1N
0K
0m
1k
0i
1g
1Z
0V
1P
0M
1H
0f
1l
0j
1h
1R
0W
#665000
0!
0A
0B
0G
#670000
1!
1A
1B
1G
1K
1m
0k
1i
0g
0X
1T
0_
0H
1f
0l
1j
0h
0Y
1U
1?
1a
0`
1+
1n
#675000
0!
0A
0B
1L
0G
#680000
0)
0$
1!
0O
0^
1A
1B
1_
0P
0a
1`
0L
1G
0?
0+
0n
0N
0K
0m
1k
0i
1g
0Z
1V
1o
1:
1P
1e
10
1M
1H
0f
1l
0j
1h
0R
1W
1n
#685000
0!
0A
0B
0G
#690000
1$
1!
1^
1A
1B
1G
1K
1m
0k
1i
0g
1X
0T
0_
0H
1f
0l
1j
0h
1Y
0U
1?
1a
0`
1+
0b
#695000
0!
0A
0B
1L
0G
#700000
1!
1A
1B
0L
1G
1N
0K
0m
1k
0i
1g
1Z
0V
0c
09
1_
0P
0]
01
0M
1H
0n
0f
1l
0j
1h
1b
1R
0W
0?
0a
1`
0+
1n
0b
#705000
0!
0A
0B
0G
#710000
1!
1A
1B
1G
1K
1m
0k
1i
0g
0X
1T
0H
1f
0l
1j
0h
0Y
1U
#715000
0!
0A
0B
1L
0G
#720000
1!
1A
1B
0L
1G
0N
0K
0m
1k
0i
1g
0Z
1V
1P
1M
1H
0f
1l
0j
1h
0R
1W
#725000
0!
0A
0B
0G
#730000
0(
0$
1!
0E
0^
1A
1B
0_
1G
1?
1+
1K
1m
0k
1i
0g
1X
0T
1_
0H
1f
0l
1j
0h
1Y
0U
0?
0+
#735000
0!
0A
0B
1L
0G
#740000
1$
1!
1^
1A
1B
0L
1G
1N
0K
0m
1k
0i
1g
1Z
0V
0P
0M
1H
0f
1l
0j
1h
1R
0W
#745000
0!
0A
0B
0G
#750000
1!
1A
1B
1G
1K
1m
0k
1i
0g
0X
1T
0H
1f
0l
1j
0h
0Y
1U
#755000
0!
0A
0B
1L
0G
#760000
1!
1A
1B
0L
1G
0N
0K
0m
1k
0i
1g
0Z
1V
0_
1P
1M
1H
0f
1l
0j
1h
0R
1W
1?
1a
0`
1+
0n
#765000
0!
0A
0B
0G
#770000
1!
1A
1B
1G
1K
1m
0k
1i
0g
1X
0T
0o
0:
1_
0e
00
0H
1n
1f
0l
1j
0h
1Y
0U
0?
0a
1`
0+
0n
#775000
0!
0A
0B
1L
0G
#780000
1)
0$
1!
1O
0^
1A
1B
0P
0L
1G
1N
0K
0m
1k
0i
1g
1Z
0V
0_
1P
0M
1H
0f
1l
0j
1h
1R
0W
1?
1+
#785000
0!
0A
0B
0G
#790000
1$
1!
1^
1A
1B
1a
0`
1G
1b
1K
1m
0k
1i
0g
0X
1T
1_
0H
1n
1f
0l
1j
0h
0Y
1U
0?
0a
1`
0+
0n
0b
#795000
0!
0A
0B
1L
0G
#800000
1!
1A
1B
0L
1G
0N
0K
0m
1k
0i
1g
0Z
1V
0P
1M
1H
0f
1l
0j
1h
0R
1W
#805000
0!
0A
0B
0G
#810000
1!
1A
1B
1G
1K
1m
0k
1i
0g
1X
0T
0H
1f
0l
1j
0h
1Y
0U
#815000
0!
0A
0B
1L
0G
#820000
1!
1A
1B
0L
1G
1N
0K
0m
1k
0i
1g
1Z
0V
0_
1P
0M
1H
0f
1l
0j
1h
1R
0W
1?
1a
0`
1+
1b
#825000
0!
0A
0B
0G
#830000
0)
0$
1!
0O
0^
1A
1B
1_
0P
0a
1`
1G
0?
0+
0b
1K
1m
0k
1i
0g
0X
1T
1c
19
1]
11
0H
1f
0l
1j
0h
0Y
1U
1b
#835000
0!
0A
0B
1L
0G
#840000
1!
1A
1B
0L
1G
0N
0K
0m
1k
0i
1g
0Z
1V
0_
1P
1M
1H
0f
1l
0j
1h
0R
1W
1?
1+
#845000
0!
0A
0B
0G
#850000
1!
1A
1B
1G
1K
1m
0k
1i
0g
1X
0T
1_
0H
1f
0l
1j
0h
1Y
0U
0?
0+
#855000
0!
0A
0B
1L
0G
#860000
1!
1A
1B
0L
1G
1N
0K
0m
1k
0i
1g
1Z
0V
0P
0M
1H
0f
1l
0j
1h
1R
0W
#865000
0!
0A
0B
0G
#870000
1!
1A
1B
1G
1K
1m
0k
1i
0g
0X
1T
0H
1f
0l
1j
0h
0Y
1U
#875000
0!
0A
0B
1L
0G
#880000
1!
1A
1B
0L
1G
0N
0K
0m
1k
0i
1g
0Z
1V
0_
1P
1M
1H
0f
1l
0j
1h
0R
1W
1?
1+
#885000
0!
0A
0B
0G
#890000
1!
1A
1B
1G
1K
1m
0k
1i
0g
1X
0T
1_
0H
1f
0l
1j
0h
1Y
0U
0?
0+
#895000
0!
0A
0B
1L
0G
#900000
1!
1A
1B
0L
1G
1N
0K
0m
1k
0i
1g
1Z
0V
0P
0M
1H
0f
1l
0j
1h
1R
0W
#905000
0!
0A
0B
0G
#910000
1!
1A
1B
1G
1K
1m
0k
1i
0g
0X
1T
0H
1f
0l
1j
0h
0Y
1U
#915000
0!
0A
0B
1L
0G
#920000
1!
1A
1B
0L
1G
0N
0K
0m
1k
0i
1g
0Z
1V
0_
1P
1M
1H
0f
1l
0j
1h
0R
1W
1?
1+
#925000
0!
0A
0B
0G
#930000
1!
1A
1B
1G
1K
1m
0k
1i
0g
1X
0T
1_
0H
1f
0l
1j
0h
1Y
0U
0?
0+
#935000
0!
0A
0B
1L
0G
#940000
1!
1A
1B
0L
1G
1N
0K
0m
1k
0i
1g
1Z
0V
0P
0M
1H
0f
1l
0j
1h
1R
0W
#945000
0!
0A
0B
0G
#950000
1!
1A
1B
1G
1K
1m
0k
1i
0g
0X
1T
0H
1f
0l
1j
0h
0Y
1U
#955000
0!
0A
0B
1L
0G
#960000
1!
1A
1B
0L
1G
0N
0K
0m
1k
0i
1g
0Z
1V
0_
1P
1M
1H
0f
1l
0j
1h
0R
1W
1?
1+
#965000
0!
0A
0B
0G
#970000
1!
1A
1B
1G
1K
1m
0k
1i
0g
1X
0T
1_
0H
1f
0l
1j
0h
1Y
0U
0?
0+
#975000
0!
0A
0B
1L
0G
#980000
1!
1A
1B
0L
1G
1N
0K
0m
1k
0i
1g
1Z
0V
0P
0M
1H
0f
1l
0j
1h
1R
0W
#985000
0!
0A
0B
0G
#990000
1!
1A
1B
1G
1K
1m
0k
1i
0g
0X
1T
0H
1f
0l
1j
0h
0Y
1U
#995000
0!
0A
0B
1L
0G
