lab3/ECE385 lab3 final/simulation/qsim/lab3final.msim.vcd
$comment
	File created using the following command:
		vcd file lab3final.msim.vcd -direction
$end
$date
	Sun Sep 27 13:50:20 2020
$end
$version
	ModelSim Version 10.5b
$end
$timescale
	1ps
$end

$scope module lab3final_vlg_vec_tst $end
$var reg 1 ! CLK $end
$var reg 1 " D0 $end
$var reg 1 # D1 $end
$var reg 1 $ D2 $end
$var reg 1 % D3 $end
$var reg 1 & EXECUTE $end
$var reg 1 ' F0 $end
$var reg 1 ( F1 $end
$var reg 1 ) F2 $end
$var reg 1 * LOAD_A $end
$var reg 1 + LOAD_B $end
$var reg 1 , R0 $end
$var reg 1 - R1 $end
$var wire 1 . C0 $end
$var wire 1 / C1 $end
$var wire 1 0 Q $end
$var wire 1 1 RA0 $end
$var wire 1 2 RA1 $end
$var wire 1 3 RA2 $end
$var wire 1 4 RA3 $end
$var wire 1 5 RB0 $end
$var wire 1 6 RB1 $end
$var wire 1 7 RB2 $end
$var wire 1 8 RB3 $end
$var wire 1 9 shift $end

$scope module i1 $end
$var wire 1 : gnd $end
$var wire 1 ; vcc $end
$var wire 1 < unknown $end
$var tri1 1 = devclrn $end
$var tri1 1 > devpor $end
$var tri1 1 ? devoe $end
$var wire 1 @ Q~output_o $end
$var wire 1 A C1~output_o $end
$var wire 1 B C0~output_o $end
$var wire 1 C shift~output_o $end
$var wire 1 D RA0~output_o $end
$var wire 1 E RA1~output_o $end
$var wire 1 F RA2~output_o $end
$var wire 1 G RA3~output_o $end
$var wire 1 H RB0~output_o $end
$var wire 1 I RB1~output_o $end
$var wire 1 J RB2~output_o $end
$var wire 1 K RB3~output_o $end
$var wire 1 L CLK~input_o $end
$var wire 1 M CLK~inputclkctrl_outclk $end
$var wire 1 N inst1|inst2|9~0_combout $end
$var wire 1 O inst1|inst2|9~q $end
$var wire 1 P EXECUTE~input_o $end
$var wire 1 Q inst1|inst11~combout $end
$var wire 1 R inst1|inst2|10~q $end
$var wire 1 S inst1|inst~combout $end
$var wire 1 T inst1|inst1|10~q $end
$var wire 1 U inst1|inst5~combout $end
$var wire 1 V inst1|inst1|9~q $end
$var wire 1 W D3~input_o $end
$var wire 1 X LOAD_A~input_o $end
$var wire 1 Y D0~input_o $end
$var wire 1 Z LOAD_B~input_o $end
$var wire 1 [ D1~input_o $end
$var wire 1 \ D2~input_o $end
$var wire 1 ] inst3|inst2|36~0_combout $end
$var wire 1 ^ inst3|inst2|35~0_combout $end
$var wire 1 _ inst3|inst2|40~q $end
$var wire 1 ` inst3|inst2|35~1_combout $end
$var wire 1 a inst3|inst2|39~q $end
$var wire 1 b inst3|inst2|34~0_combout $end
$var wire 1 c inst3|inst2|34~1_combout $end
$var wire 1 d inst3|inst2|38~q $end
$var wire 1 e R0~input_o $end
$var wire 1 f R1~input_o $end
$var wire 1 g inst3|inst1|37~1_combout $end
$var wire 1 h F0~input_o $end
$var wire 1 i F1~input_o $end
$var wire 1 j F2~input_o $end
$var wire 1 k inst2|inst|sub|81~0_combout $end
$var wire 1 l inst2|inst|sub|81~1_combout $end
$var wire 1 m inst3|inst1|37~0_combout $end
$var wire 1 n inst3|inst1|37~2_combout $end
$var wire 1 o inst3|inst1|35~0_combout $end
$var wire 1 p inst3|inst1|41~q $end
$var wire 1 q inst3|inst1|36~0_combout $end
$var wire 1 r inst3|inst1|40~q $end
$var wire 1 s inst3|inst1|35~1_combout $end
$var wire 1 t inst3|inst1|39~q $end
$var wire 1 u inst3|inst1|34~0_combout $end
$var wire 1 v inst3|inst1|34~1_combout $end
$var wire 1 w inst3|inst1|38~q $end
$var wire 1 x inst3|inst2|37~1_combout $end
$var wire 1 y inst3|inst2|37~0_combout $end
$var wire 1 z inst3|inst2|37~2_combout $end
$var wire 1 { inst3|inst2|41~q $end
$upscope $end
$upscope $end
$enddefinitions $end
#0
$dumpvars
0!
0"
0#
0$
0%
0&
0'
0(
0)
0*
0+
0,
0-
0.
0/
00
01
02
03
04
05
06
07
08
09
0:
1;
x<
1=
1>
1?
0@
0A
0B
0C
0D
0E
0F
0G
0H
0I
0J
0K
0L
0M
0N
0O
0P
0Q
0R
0S
0T
0U
0V
0W
0X
0Y
0Z
0[
0\
0]
0^
0_
0`
0a
0b
0c
0d
0e
0f
0g
0h
0i
0j
0k
0l
0m
0n
0o
0p
0q
0r
0s
0t
0u
0v
0w
0x
0y
0z
0{
$end
#5000
1!
1L
1M
#10000
1#
1"
0!
1[
1Y
0L
0M
#15000
1!
1L
1M
#20000
0!
0L
0M
#25000
1!
1L
1M
#30000
1*
0!
1X
0L
0M
1^
1c
1`
#35000
1!
1L
1M
1d
1a
1F
1G
1x
14
13
#40000
0!
0L
0M
#45000
1!
1L
1M
#50000
0#
0"
0*
0!
0[
0Y
0X
0L
0M
1b
0^
0`
0c
1z
1c
#55000
1!
1L
1M
#60000
0!
0L
0M
#65000
1!
1L
1M
#70000
1%
1$
0!
1W
1\
0L
0M
#75000
1!
1L
1M
#80000
0!
0L
0M
#85000
1!
1L
1M
#90000
1*
0!
1X
0L
0M
0b
1^
1]
0c
#95000
1!
1L
1M
1{
0d
0a
1_
1E
0F
0G
1D
0x
11
04
03
12
#100000
0!
0L
0M
#105000
1!
1L
1M
#110000
0%
0$
0*
0!
0W
0\
0X
0L
0M
0^
0z
1`
#115000
1!
1L
1M
#120000
0!
0L
0M
#125000
1!
1L
1M
#130000
0!
0L
0M
#135000
1!
1L
1M
#140000
0!
0L
0M
#145000
1!
1L
1M
#150000
1*
0!
1X
0L
0M
1^
0]
0`
#155000
1!
1L
1M
0{
0_
0E
0D
01
02
#160000
0!
0L
0M
#165000
1!
1L
1M
#170000
0*
0!
0X
0L
0M
0^
#175000
1!
1L
1M
#180000
0!
0L
0M
#185000
1!
1L
1M
#190000
1#
1"
0!
1[
1Y
0L
0M
#195000
1!
1L
1M
#200000
0!
0L
0M
#205000
1!
1L
1M
#210000
1+
0!
1Z
0L
0M
1o
1v
1s
#215000
1!
1L
1M
1w
1t
1J
1K
1g
18
17
#220000
0!
0L
0M
#225000
1!
1L
1M
#230000
0#
0"
0+
0!
0[
0Y
0Z
0L
0M
1u
0o
0s
0v
1n
1v
#235000
1!
1L
1M
#240000
0!
0L
0M
#245000
1!
1L
1M
#250000
1%
1$
0!
1W
1\
0L
0M
#255000
1!
1L
1M
#260000
0!
0L
0M
#265000
1!
1L
1M
#270000
1+
0!
1Z
0L
0M
0u
1o
1q
0v
#275000
1!
1L
1M
0w
0t
1r
1p
1H
1I
0J
0K
0g
08
07
16
15
#280000
0!
0L
0M
#285000
1!
1L
1M
#290000
0%
0$
0+
0!
0W
0\
0Z
0L
0M
0o
0n
1s
#295000
1!
1L
1M
#300000
0!
0L
0M
#305000
1!
1L
1M
#310000
0!
0L
0M
#315000
1!
1L
1M
#320000
0!
0L
0M
#325000
1!
1L
1M
#330000
1+
0!
1Z
0L
0M
1o
0s
0q
#335000
1!
1L
1M
0r
0p
0H
0I
06
05
#340000
0!
0L
0M
#345000
1!
1L
1M
#350000
0+
0!
0Z
0L
0M
0o
#355000
1!
1L
1M
#360000
0!
0L
0M
#365000
1!
1L
1M
#370000
0!
0L
0M
#375000
1!
1L
1M
#380000
0!
0L
0M
#385000
1!
1L
1M
#390000
0!
0L
0M
#395000
1!
1L
1M
#400000
1#
1%
1$
0!
1[
1W
1\
0L
0M
#405000
1!
1L
1M
#410000
0!
0L
0M
#415000
1!
1L
1M
#420000
1*
0!
1X
0L
0M
1^
1]
1z
1`
#425000
1!
1L
1M
1{
1a
1_
1E
1F
1D
11
13
12
#430000
0!
0L
0M
#435000
1!
1L
1M
#440000
1"
0%
0*
0!
1Y
0W
0X
0L
0M
0^
0z
#445000
1!
1L
1M
#450000
0!
0L
0M
#455000
1!
1L
1M
#460000
1+
0!
1Z
0L
0M
1o
1v
1s
1q
#465000
1!
1L
1M
1w
1t
1r
1I
1J
1K
1g
18
17
16
#470000
0!
0L
0M
#475000
1!
1L
1M
#480000
0#
0$
0"
0+
0!
0[
0\
0Y
0Z
0L
0M
1u
0o
0q
0v
1n
1v
#485000
1!
1L
1M
#490000
0!
0L
0M
#495000
1!
1L
1M
#500000
1&
0!
1P
0L
0M
1U
1S
1Q
#505000
1!
1L
1M
1V
1T
1R
1B
1@
1C
1o
1b
1^
19
10
1.
0Q
1N
1c
#510000
0!
0L
0M
#515000
1!
1L
1M
0{
0r
1p
1d
0R
1O
1A
0B
1G
1H
0I
0D
0]
1x
1k
01
06
15
14
0.
1/
0s
1q
1Q
1l
1z
#520000
0!
0L
0M
#525000
1!
1L
1M
1{
0t
1r
0_
1R
1B
0E
1I
0J
1D
1]
0u
11
07
16
02
1.
1s
0`
0Q
0N
0v
#530000
0!
0L
0M
#535000
1!
1L
1M
0w
1t
0a
1_
0R
0O
0A
0B
1E
0F
1J
0K
1u
0k
0g
0b
08
17
03
12
0.
0/
1`
0U
0l
1v
0n
0c
#540000
0!
0L
0M
#545000
1!
1L
1M
1w
0p
0d
1a
0V
0C
1F
0G
0H
1K
0x
1g
0o
0^
18
05
04
13
09
0q
0z
1n
#550000
0!
0L
0M
#555000
1!
1L
1M
#560000
0!
0L
0M
#565000
1!
1L
1M
#570000
0!
0L
0M
#575000
1!
1L
1M
#580000
0!
0L
0M
#585000
1!
1L
1M
#590000
0!
0L
0M
#595000
1!
1L
1M
#600000
1,
1%
1#
1$
0&
0!
1e
1W
1[
1\
0P
0L
0M
0g
0S
0n
#605000
1!
1L
1M
0T
0@
00
#610000
0!
0L
0M
#615000
1!
1L
1M
#620000
1*
0!
1X
0L
0M
1^
1z
#625000
1!
1L
1M
#630000
0!
0L
0M
#635000
1!
1L
1M
#640000
1"
0%
0*
0!
1Y
0W
0X
0L
0M
0^
0z
#645000
1!
1L
1M
#650000
0!
0L
0M
#655000
1!
1L
1M
#660000
1+
0!
1Z
0L
0M
0u
1o
1q
#665000
1!
1L
1M
#670000
0!
0L
0M
#675000
1!
1L
1M
#680000
0#
0$
0"
0+
0!
0[
0\
0Y
0Z
0L
0M
1u
0o
0q
0v
1v
#685000
1!
1L
1M
#690000
0!
0L
0M
#695000
1!
1L
1M
#700000
1&
0!
1P
0L
0M
1U
1S
1Q
#705000
1!
1L
1M
1V
1T
1R
1B
1@
1C
1o
1b
1^
19
10
1.
0Q
1N
1c
#710000
0!
0L
0M
#715000
1!
1L
1M
0{
0r
1d
0R
1O
1A
0B
1G
0I
0D
0]
1x
1k
01
06
14
0.
1/
0s
1Q
1l
1z
1m
1n
#720000
0!
0L
0M
#725000
1!
1L
1M
1{
0t
1p
0_
1R
1B
0E
1H
0J
1D
1]
0u
11
07
15
02
1.
1q
0`
0Q
0N
0v
#730000
0!
0L
0M
#735000
1!
1L
1M
0w
1r
0a
1_
0R
0O
0A
0B
1E
0F
1I
0K
0k
0b
08
16
03
12
0.
0/
1s
1`
0U
0l
0c
0m
0n
#740000
0!
0L
0M
#745000
1!
1L
1M
1t
0p
0d
1a
0V
0C
1F
0G
0H
1J
0x
0o
0^
17
05
04
13
09
0q
0z
#750000
0!
0L
0M
#755000
1!
1L
1M
#760000
0!
0L
0M
#765000
1!
1L
1M
#770000
0!
0L
0M
#775000
1!
1L
1M
#780000
0!
0L
0M
#785000
1!
1L
1M
#790000
0!
0L
0M
#795000
1!
1L
1M
#800000
1-
0,
1%
1#
1$
0&
0!
1f
0e
1W
1[
1\
0P
0L
0M
0S
#805000
1!
1L
1M
0T
0@
00
#810000
0!
0L
0M
#815000
1!
1L
1M
#820000
1*
0!
1X
0L
0M
1^
1z
#825000
1!
1L
1M
#830000
0!
0L
0M
#835000
1!
1L
1M
#840000
1"
0%
0*
0!
1Y
0W
0X
0L
0M
0^
0z
#845000
1!
1L
1M
#850000
0!
0L
0M
#855000
1!
1L
1M
#860000
1+
0!
1Z
0L
0M
1o
1v
1q
#865000
1!
1L
1M
1w
1K
1g
18
#870000
0!
0L
0M
#875000
1!
1L
1M
#880000
0#
0$
0"
0+
0!
0[
0\
0Y
0Z
0L
0M
1u
0o
0q
0v
1n
1v
#885000
1!
1L
1M
#890000
0!
0L
0M
#895000
1!
1L
1M
#900000
1&
0!
1P
0L
0M
1U
1S
1Q
#905000
1!
1L
1M
1V
1T
1R
1B
1@
1C
1o
1b
1^
19
10
1.
0Q
1N
1c
#910000
0!
0L
0M
#915000
1!
1L
1M
0{
0r
1p
1d
0R
1O
1A
0B
1G
1H
0I
0D
0]
1k
01
06
15
14
0.
1/
0s
1q
1Q
1l
1y
1z
#920000
0!
0L
0M
#925000
1!
1L
1M
1{
0t
1r
0_
1R
1B
0E
1I
0J
1D
1]
0u
11
07
16
02
1.
1s
0`
0Q
0N
0v
#930000
0!
0L
0M
#935000
1!
1L
1M
0w
1t
0a
1_
0R
0O
0A
0B
1E
0F
1J
0K
1u
0k
0g
0b
08
17
03
12
0.
0/
1`
0U
0l
1v
0n
0c
0y
0z
#940000
0!
0L
0M
#945000
1!
1L
1M
0{
1w
0p
0d
1a
0V
0C
1F
0G
0H
1K
0D
0]
1g
0o
0^
01
18
05
04
13
09
0q
1n
#950000
0!
0L
0M
#955000
1!
1L
1M
#960000
0!
0L
0M
#965000
1!
1L
1M
#970000
0!
0L
0M
#975000
1!
1L
1M
#980000
0!
0L
0M
#985000
1!
1L
1M
#990000
0!
0L
0M
#995000
1!
1L
1M
#1000000
1,
1%
1#
1$
0&
0!
1e
1W
1[
1\
0P
0L
0M
1x
0g
0S
1z
0n
#1005000
1!
1L
1M
0T
0@
00
#1010000
0!
0L
0M
#1015000
1!
1L
1M
#1020000
1*
0!
1X
0L
0M
1^
1]
#1025000
1!
1L
1M
1{
1D
11
#1030000
0!
0L
0M
#1035000
1!
1L
1M
#1040000
1"
0%
0*
0!
1Y
0W
0X
0L
0M
0^
#1045000
1!
1L
1M
#1050000
0!
0L
0M
#1055000
1!
1L
1M
#1060000
1+
0!
1Z
0L
0M
0u
1o
1q
#1065000
1!
1L
1M
#1070000
0!
0L
0M
#1075000
1!
1L
1M
#1080000
0#
0$
0"
0+
0!
0[
0\
0Y
0Z
0L
0M
1u
0o
0q
0v
1v
#1085000
1!
1L
1M
#1090000
0!
0L
0M
#1095000
1!
1L
1M
#1100000
1&
0!
1P
0L
0M
1U
1S
1Q
#1105000
1!
1L
1M
1V
1T
1R
1B
1@
1C
1o
1b
1^
19
10
1.
0Q
1N
1c
#1110000
0!
0L
0M
#1115000
1!
1L
1M
0r
1d
0R
1O
1A
0B
1G
0I
1k
1g
06
14
0.
1/
0s
1Q
1l
1n
#1120000
0!
0L
0M
#1125000
1!
1L
1M
0t
1p
1R
1B
1H
0J
0u
07
15
1.
1q
0Q
0N
0v
#1130000
0!
0L
0M
#1135000
1!
1L
1M
0w
1r
0R
0O
0A
0B
1I
0K
0x
0k
08
16
0.
0/
1s
0U
0l
0z
#1140000
0!
0L
0M
#1145000
1!
1L
1M
0{
1t
0V
0C
1J
0D
0]
0o
0^
01
17
09
#1150000
0!
0L
0M
#1155000
1!
1L
1M
#1160000
0!
0L
0M
#1165000
1!
1L
1M
#1170000
0!
0L
0M
#1175000
1!
1L
1M
#1180000
0!
0L
0M
#1185000
1!
1L
1M
#1190000
0!
0L
0M
#1195000
1!
1L
1M
#1200000
1'
0,
1%
1#
0&
0!
1h
0e
1W
1[
0P
0L
0M
1k
0g
0S
1l
0n
1y
1z
#1205000
1!
1L
1M
0T
0@
00
#1210000
0!
0L
0M
#1215000
1!
1L
1M
#1220000
1*
0!
1X
0L
0M
0b
1^
0c
#1225000
1!
1L
1M
1{
0d
0_
0E
0G
1D
0k
11
04
02
0l
0y
#1230000
0!
0L
0M
#1235000
1!
1L
1M
#1240000
1$
1"
0%
0*
0!
1\
1Y
0W
0X
0L
0M
1]
0^
0z
0`
#1245000
1!
1L
1M
#1250000
0!
0L
0M
#1255000
1!
1L
1M
#1260000
1+
0!
1Z
0L
0M
1o
1v
#1265000
1!
1L
1M
1w
0p
0H
1K
1k
1g
18
05
1l
1y
1z
#1270000
0!
0L
0M
#1275000
1!
1L
1M
#1280000
0#
0$
0"
0+
0!
0[
0\
0Y
0Z
0L
0M
1u
0o
0q
0v
1n
1v
#1285000
1!
1L
1M
#1290000
0!
0L
0M
#1295000
1!
1L
1M
#1300000
1&
0!
1P
0L
0M
1U
1S
1Q
#1305000
1!
1L
1M
1V
1T
1R
1B
1@
1C
1o
1b
1^
19
10
1.
0Q
1N
1c
#1310000
0!
0L
0M
#1315000
1!
1L
1M
0r
1p
1d
0a
1_
0R
1O
1A
0B
1E
0F
1G
1H
0I
0b
06
15
14
03
12
0.
1/
0s
1q
1`
1Q
0c
#1320000
0!
0L
0M
#1325000
1!
1L
1M
0t
1r
0d
1a
1R
1B
1F
0G
1I
0J
0u
1b
07
16
04
13
1.
1s
0Q
0N
0v
1c
#1330000
0!
0L
0M
#1335000
1!
1L
1M
0w
1t
1d
0R
0O
0A
0B
1G
1J
0K
1u
0g
08
17
14
0.
0/
0U
1v
0n
#1340000
0!
0L
0M
#1345000
1!
1L
1M
1w
0p
0V
0C
0H
1K
1g
0o
0^
18
05
09
0q
1n
#1350000
0!
0L
0M
#1355000
1!
1L
1M
#1360000
0!
0L
0M
#1365000
1!
1L
1M
#1370000
0!
0L
0M
#1375000
1!
1L
1M
#1380000
0!
0L
0M
#1385000
1!
1L
1M
#1390000
0!
0L
0M
#1395000
1!
1L
1M
#1400000
1(
0'
1%
1#
0&
0!
1i
0h
1W
1[
0P
0L
0M
0k
0S
0l
0y
0z
#1405000
1!
1L
1M
0T
0@
00
#1410000
0!
0L
0M
#1415000
1!
1L
1M
#1420000
1*
0!
1X
0L
0M
0b
1^
0]
1z
0c
#1425000
1!
1L
1M
0d
0_
0E
0G
1k
04
02
1l
1y
#1430000
0!
0L
0M
#1435000
1!
1L
1M
#1440000
1$
1"
0%
0*
0!
1\
1Y
0W
0X
0L
0M
1]
0^
0`
#1445000
1!
1L
1M
#1450000
0!
0L
0M
#1455000
1!
1L
1M
#1460000
1+
0!
1Z
0L
0M
0u
1o
1q
0n
#1465000
1!
1L
1M
#1470000
0!
0L
0M
#1475000
1!
1L
1M
#1480000
0#
0$
0"
0+
0!
0[
0\
0Y
0Z
0L
0M
1u
0o
0q
0v
1n
1v
#1485000
1!
1L
1M
#1490000
0!
0L
0M
#1495000
1!
1L
1M
#1500000
1&
0!
1P
0L
0M
1U
1S
1Q
#1505000
1!
1L
1M
1V
1T
1R
1B
1@
1C
1o
1b
1^
19
10
1.
0Q
1N
1c
#1510000
0!
0L
0M
#1515000
1!
1L
1M
0r
1p
1d
0a
1_
0R
1O
1A
0B
1E
0F
1G
1H
0I
0k
0b
06
15
14
03
12
0.
1/
0s
1q
1`
1Q
0l
0c
0y
0z
#1520000
0!
0L
0M
#1525000
1!
1L
1M
0{
0t
1r
0d
1a
1R
1B
1F
0G
1I
0J
0D
0]
0u
1k
1b
01
07
16
04
13
1.
1s
0Q
0N
1l
0v
1c
1y
1z
#1530000
0!
0L
0M
#1535000
1!
1L
1M
1{
0w
1t
1d
0_
0R
0O
0A
0B
0E
1G
1J
0K
1D
1]
1u
0g
11
08
17
14
02
0.
0/
0`
0U
1v
0n
#1540000
0!
0L
0M
#1545000
1!
1L
1M
1w
0p
0a
1_
0V
0C
1E
0F
0H
1K
0k
1g
0o
0^
18
05
03
12
09
0q
1`
0l
1n
0y
0z
#1550000
0!
0L
0M
#1555000
1!
1L
1M
#1560000
0!
0L
0M
#1565000
1!
1L
1M
#1570000
0!
0L
0M
#1575000
1!
1L
1M
#1580000
0!
0L
0M
#1585000
1!
1L
1M
#1590000
0!
0L
0M
#1595000
1!
1L
1M
#1600000
1'
1%
1#
0&
0!
1h
1W
1[
0P
0L
0M
1k
0S
1l
1y
1z
#1605000
1!
1L
1M
0T
0@
00
#1610000
0!
0L
0M
#1615000
1!
1L
1M
#1620000
1*
0!
1X
0L
0M
0b
1^
0]
0c
#1625000
1!
1L
1M
0d
1a
0_
0E
1F
0G
04
13
02
#1630000
0!
0L
0M
#1635000
1!
1L
1M
#1640000
1$
1"
0%
0*
0!
1\
1Y
0W
0X
0L
0M
1]
0^
0`
#1645000
1!
1L
1M
#1650000
0!
0L
0M
#1655000
1!
1L
1M
#1660000
1+
0!
1Z
0L
0M
0u
1o
1q
0n
#1665000
1!
1L
1M
#1670000
0!
0L
0M
#1675000
1!
1L
1M
#1680000
0#
0$
0"
0+
0!
0[
0\
0Y
0Z
0L
0M
1u
0o
0q
0v
1n
1v
#1685000
1!
1L
1M
#1690000
0!
0L
0M
#1695000
1!
1L
1M
#1700000
1&
0!
1P
0L
0M
1U
1S
1Q
#1705000
1!
1L
1M
1V
1T
1R
1B
1@
1C
1o
1b
1^
19
10
1.
0Q
1N
1c
#1710000
0!
0L
0M
#1715000
1!
1L
1M
0r
1p
1d
0a
1_
0R
1O
1A
0B
1E
0F
1G
1H
0I
0b
06
15
14
03
12
0.
1/
0s
1q
1`
1Q
0c
#1720000
0!
0L
0M
#1725000
1!
1L
1M
0t
1r
0d
1a
1R
1B
1F
0G
1I
0J
0u
1b
07
16
04
13
1.
1s
0Q
0N
0v
1c
#1730000
0!
0L
0M
#1735000
1!
1L
1M
0w
1t
1d
0R
0O
0A
0B
1G
1J
0K
1u
0g
08
17
14
0.
0/
0U
1v
0n
#1740000
0!
0L
0M
#1745000
1!
1L
1M
1w
0p
0V
0C
0H
1K
1g
0o
0^
18
05
09
0q
1n
#1750000
0!
0L
0M
#1755000
1!
1L
1M
#1760000
0!
0L
0M
#1765000
1!
1L
1M
#1770000
0!
0L
0M
#1775000
1!
1L
1M
#1780000
0!
0L
0M
#1785000
1!
1L
1M
#1790000
0!
0L
0M
#1795000
1!
1L
1M
#1800000
1)
0(
0'
1%
1#
0&
0!
1j
0i
0h
1W
1[
0P
0L
0M
0l
0S
0y
0z
#1805000
1!
1L
1M
0T
0@
00
#1810000
0!
0L
0M
#1815000
1!
1L
1M
#1820000
1*
0!
1X
0L
0M
0b
1^
0]
1z
0c
#1825000
1!
1L
1M
0d
0_
0E
0G
0k
04
02
1l
1y
#1830000
0!
0L
0M
#1835000
1!
1L
1M
#1840000
1$
1"
0%
0*
0!
1\
1Y
0W
0X
0L
0M
1]
0^
0`
#1845000
1!
1L
1M
#1850000
0!
0L
0M
#1855000
1!
1L
1M
#1860000
1+
0!
1Z
0L
0M
0u
1o
1q
0n
#1865000
1!
1L
1M
#1870000
0!
0L
0M
#1875000
1!
1L
1M
#1880000
0#
0$
0"
0+
0!
0[
0\
0Y
0Z
0L
0M
1u
0o
0q
0v
1n
1v
#1885000
1!
1L
1M
#1890000
0!
0L
0M
#1895000
1!
1L
1M
#1900000
1&
0!
1P
0L
0M
1U
1S
1Q
#1905000
1!
1L
1M
1V
1T
1R
1B
1@
1C
1o
1b
1^
19
10
1.
0Q
1N
1c
#1910000
0!
0L
0M
#1915000
1!
1L
1M
0r
1p
1d
0a
1_
0R
1O
1A
0B
1E
0F
1G
1H
0I
1k
0b
06
15
14
03
12
0.
1/
0s
1q
1`
1Q
0l
0c
0y
0z
#1920000
0!
0L
0M
#1925000
1!
1L
1M
0{
0t
1r
0d
1a
1R
1B
1F
0G
1I
0J
0D
0]
0u
0k
1b
01
07
16
04
13
1.
1s
0Q
0N
1l
0v
1c
1y
1z
#1930000
0!
0L
0M
#1935000
1!
1L
1M
1{
0w
1t
1d
0_
0R
0O
0A
0B
0E
1G
1J
0K
1D
1]
1u
0g
11
08
17
14
02
0.
0/
0`
0U
1v
0n
#1940000
0!
0L
0M
#1945000
1!
1L
1M
1w
0p
0a
1_
0V
0C
1E
0F
0H
1K
1k
1g
0o
0^
18
05
03
12
09
0q
1`
0l
1n
0y
0z
#1950000
0!
0L
0M
#1955000
1!
1L
1M
#1960000
0!
0L
0M
#1965000
1!
1L
1M
#1970000
0!
0L
0M
#1975000
1!
1L
1M
#1980000
0!
0L
0M
#1985000
1!
1L
1M
#1990000
0!
0L
0M
#1995000
1!
1L
1M
#2000000
1'
1%
1#
0&
0!
1h
1W
1[
0P
0L
0M
0S
#2005000
1!
1L
1M
0T
0@
00
#2010000
0!
0L
0M
#2015000
1!
1L
1M
#2020000
1*
0!
1X
0L
0M
0b
1^
0]
1z
0c
#2025000
1!
1L
1M
0d
1a
0_
0E
1F
0G
04
13
02
#2030000
0!
0L
0M
#2035000
1!
1L
1M
#2040000
1$
1"
0%
0*
0!
1\
1Y
0W
0X
0L
0M
1]
0^
0z
0`
#2045000
1!
1L
1M
#2050000
0!
0L
0M
#2055000
1!
1L
1M
#2060000
1+
0!
1Z
0L
0M
0u
1o
1q
0n
#2065000
1!
1L
1M
#2070000
0!
0L
0M
#2075000
1!
1L
1M
#2080000
0#
0$
0"
0+
0!
0[
0\
0Y
0Z
0L
0M
1u
0o
0q
0v
1n
1v
#2085000
1!
1L
1M
#2090000
0!
0L
0M
#2095000
1!
1L
1M
#2100000
0!
0L
0M
#2105000
1!
1L
1M
#2110000
1&
0!
1P
0L
0M
1U
1S
1Q
#2115000
1!
1L
1M
1V
1T
1R
1B
1@
1C
1o
1b
1^
19
10
1.
0Q
1N
1c
#2120000
0!
0L
0M
#2125000
1!
1L
1M
0{
0r
1p
1d
0a
1_
0R
1O
1A
0B
1E
0F
1G
1H
0I
0D
0]
0b
01
06
15
14
03
12
0.
1/
0s
1q
1`
1Q
0c
#2130000
0!
0L
0M
#2135000
1!
1L
1M
0t
1r
0d
1a
0_
1R
1B
0E
1F
0G
1I
0J
0u
1b
07
16
04
13
02
1.
1s
0`
0Q
0N
0v
1c
#2140000
0!
0L
0M
#2145000
1!
1L
1M
0w
1t
1d
0a
0R
0O
0A
0B
0F
1G
1J
0K
1u
0g
0b
08
17
14
03
0.
0/
0U
1v
0n
0c
#2150000
0!
0L
0M
#2155000
1!
1L
1M
1w
0p
0d
0V
0C
0G
0H
1K
1g
0o
0^
18
05
04
09
0q
1n
#2160000
0!
0L
0M
#2165000
1!
1L
1M
#2170000
0!
0L
0M
#2175000
1!
1L
1M
#2180000
0!
0L
0M
#2185000
1!
1L
1M
#2190000
0!
0L
0M
#2195000
1!
1L
1M
#2200000
1(
0'
1%
1#
0&
0!
1i
0h
1W
1[
0P
0L
0M
1l
0S
1y
1z
#2205000
1!
1L
1M
0T
0@
00
#2210000
0!
0L
0M
#2215000
1!
1L
1M
#2220000
1*
0!
1X
0L
0M
1^
1`
#2225000
1!
1L
1M
1{
1a
1F
1D
11
13
#2230000
0!
0L
0M
#2235000
1!
1L
1M
#2240000
1$
1"
0%
0*
0!
1\
1Y
0W
0X
0L
0M
1]
0^
0`
#2245000
1!
1L
1M
#2250000
0!
0L
0M
#2255000
1!
1L
1M
#2260000
1+
0!
1Z
0L
0M
0u
1o
1q
0n
#2265000
1!
1L
1M
#2270000
0!
0L
0M
#2275000
1!
1L
1M
#2280000
0#
0$
0"
0+
0!
0[
0\
0Y
0Z
0L
0M
1u
0o
0q
0v
1n
1v
#2285000
1!
1L
1M
#2290000
0!
0L
0M
#2295000
1!
1L
1M
#2300000
1&
0!
1P
0L
0M
1U
1S
1Q
#2305000
1!
1L
1M
1V
1T
1R
1B
1@
1C
1o
1b
1^
19
10
1.
0Q
1N
1c
#2310000
0!
0L
0M
#2315000
1!
1L
1M
0r
1p
1d
0a
1_
0R
1O
1A
0B
1E
0F
1G
1H
0I
0k
0b
06
15
14
03
12
0.
1/
0s
1q
1`
1Q
0l
0c
0y
0z
#2320000
0!
0L
0M
#2325000
1!
1L
1M
0{
0t
1r
0d
1a
1R
1B
1F
0G
1I
0J
0D
0]
0u
1k
1b
01
07
16
04
13
1.
1s
0Q
0N
1l
0v
1c
1y
1z
#2330000
0!
0L
0M
#2335000
1!
1L
1M
1{
0w
1t
1d
0_
0R
0O
0A
0B
0E
1G
1J
0K
1D
1]
1u
0g
11
08
17
14
02
0.
0/
0`
0U
1v
0n
#2340000
0!
0L
0M
#2345000
1!
1L
1M
1w
0p
0a
1_
0V
0C
1E
0F
0H
1K
0k
1g
0o
0^
18
05
03
12
09
0q
1`
0l
1n
0y
0z
#2350000
0!
0L
0M
#2355000
1!
1L
1M
#2360000
0!
0L
0M
#2365000
1!
1L
1M
#2370000
0!
0L
0M
#2375000
1!
1L
1M
#2380000
0!
0L
0M
#2385000
1!
1L
1M
#2390000
0!
0L
0M
#2395000
1!
1L
1M
#2400000
1'
1%
1#
0&
0!
1h
1W
1[
0P
0L
0M
1k
0S
#2405000
1!
1L
1M
0T
0@
00
#2410000
0!
0L
0M
#2415000
1!
1L
1M
#2420000
1*
0!
1X
0L
0M
0b
1^
0]
1z
0c
#2425000
1!
1L
1M
0d
1a
0_
0E
1F
0G
04
13
02
#2430000
0!
0L
0M
#2435000
1!
1L
1M
#2440000
1$
1"
0%
0*
0!
1\
1Y
0W
0X
0L
0M
1]
0^
0z
0`
#2445000
1!
1L
1M
#2450000
0!
0L
0M
#2455000
1!
1L
1M
#2460000
1+
0!
1Z
0L
0M
0u
1o
1q
0n
#2465000
1!
1L
1M
#2470000
0!
0L
0M
#2475000
1!
1L
1M
#2480000
0#
0$
0"
0+
0!
0[
0\
0Y
0Z
0L
0M
1u
0o
0q
0v
1n
1v
#2485000
1!
1L
1M
#2490000
0!
0L
0M
#2495000
1!
1L
1M
#2500000
1&
0!
1P
0L
0M
1U
1S
1Q
#2505000
1!
1L
1M
1V
1T
1R
1B
1@
1C
1o
1b
1^
19
10
1.
0Q
1N
1c
#2510000
0!
0L
0M
#2515000
1!
1L
1M
0{
0r
1p
1d
0a
1_
0R
1O
1A
0B
1E
0F
1G
1H
0I
0D
0]
0b
01
06
15
14
03
12
0.
1/
0s
1q
1`
1Q
0c
#2520000
0!
0L
0M
