lab3_modi/ECE385 lab3.3/simulation/qsim/controlunit.msim.vcd
$comment
	File created using the following command:
		vcd file controlunit.msim.vcd -direction
$end
$date
	Sat Sep 26 02:20:37 2020
$end
$version
	ModelSim Version 10.5b
$end
$timescale
	1ps
$end

$scope module controlunit_vlg_vec_tst $end
$var reg 1 ! C0 $end
$var reg 1 " C1 $end
$var reg 1 # Execute $end
$var reg 1 $ Q $end
$var wire 1 % C0plus $end
$var wire 1 & C1plus $end
$var wire 1 ' Qplus $end
$var wire 1 ( Shift $end

$scope module i1 $end
$var wire 1 ) gnd $end
$var wire 1 * vcc $end
$var wire 1 + unknown $end
$var tri1 1 , devclrn $end
$var tri1 1 - devpor $end
$var tri1 1 . devoe $end
$var wire 1 / Shift~output_o $end
$var wire 1 0 Qplus~output_o $end
$var wire 1 1 C1plus~output_o $end
$var wire 1 2 C0plus~output_o $end
$var wire 1 3 Q~input_o $end
$var wire 1 4 C1~input_o $end
$var wire 1 5 Execute~input_o $end
$var wire 1 6 C0~input_o $end
$var wire 1 7 inst5~combout $end
$var wire 1 8 inst~combout $end
$var wire 1 9 inst7~combout $end
$var wire 1 : inst11~combout $end
$upscope $end
$upscope $end
$enddefinitions $end
#0
$dumpvars
0!
0"
0#
0$
0%
0&
0'
0(
0)
1*
x+
1,
1-
1.
0/
00
01
02
03
04
05
06
07
08
09
0:
$end
#40000
1$
13
#60000
1!
16
19
18
17
1/
10
11
1&
1'
1(
#80000
1"
0!
14
06
1:
12
1%
#100000
0"
04
0:
09
08
07
0/
00
01
02
0%
0&
0'
0(
#110000
1!
1"
16
14
18
17
1/
10
1'
1(
#130000
0$
0!
0"
03
06
04
07
08
00
0/
0(
0'
#150000
1#
15
1:
18
17
1/
10
12
1%
1'
1(
#180000
1$
13
0:
07
0/
02
0%
0(
#210000
1!
16
19
17
1/
11
1&
1(
#240000
0!
06
09
07
0/
01
0&
0(
#250000
1"
14
1:
19
17
1/
11
12
1%
1&
1(
#290000
0"
04
0:
09
07
0/
01
02
0%
0&
0(
#320000
1!
1"
16
14
17
1/
1(
#380000
0!
0"
06
04
07
0/
0(
#430000
0#
0$
05
03
08
00
0'
