lab3_modi/ECE385 lab3 final/simulation/qsim/lab3final.msim.vcd
$comment
	File created using the following command:
		vcd file lab3final.msim.vcd -direction
$end
$date
	Sat Oct 10 07:31:43 2020
$end
$version
	ModelSim Version 10.5b
$end
$timescale
	1ps
$end

$scope module lab3final_vlg_vec_tst $end
$var reg 1 ! CLK $end
$var reg 1 " D0 $end
$var reg 1 # D1 $end
$var reg 1 $ D2 $end
$var reg 1 % D3 $end
$var reg 1 & EXECUTE $end
$var reg 1 ' F0 $end
$var reg 1 ( F1 $end
$var reg 1 ) F2 $end
$var reg 1 * LOAD_A $end
$var reg 1 + LOAD_B $end
$var reg 1 , R0 $end
$var reg 1 - R1 $end
$var wire 1 . C0 $end
$var wire 1 / C1 $end
$var wire 1 0 Q $end
$var wire 1 1 RA0 $end
$var wire 1 2 RA1 $end
$var wire 1 3 RA2 $end
$var wire 1 4 RA3 $end
$var wire 1 5 RB0 $end
$var wire 1 6 RB1 $end
$var wire 1 7 RB2 $end
$var wire 1 8 RB3 $end
$var wire 1 9 shift $end

$scope module i1 $end
$var wire 1 : gnd $end
$var wire 1 ; vcc $end
$var wire 1 < unknown $end
$var tri1 1 = devclrn $end
$var tri1 1 > devpor $end
$var tri1 1 ? devoe $end
$var wire 1 @ Q~output_o $end
$var wire 1 A C1~output_o $end
$var wire 1 B C0~output_o $end
$var wire 1 C shift~output_o $end
$var wire 1 D RA0~output_o $end
$var wire 1 E RA1~output_o $end
$var wire 1 F RA2~output_o $end
$var wire 1 G RA3~output_o $end
$var wire 1 H RB0~output_o $end
$var wire 1 I RB1~output_o $end
$var wire 1 J RB2~output_o $end
$var wire 1 K RB3~output_o $end
$var wire 1 L CLK~input_o $end
$var wire 1 M EXECUTE~input_o $end
$var wire 1 N inst1|inst22~combout $end
$var wire 1 O inst1|inst2|10~q $end
$var wire 1 P inst1|inst2|9~0_combout $end
$var wire 1 Q inst1|inst2|9~q $end
$var wire 1 R inst1|inst~combout $end
$var wire 1 S inst1|inst1|10~q $end
$var wire 1 T inst1|inst13~combout $end
$var wire 1 U inst1|inst1|9~q $end
$var wire 1 V D3~input_o $end
$var wire 1 W D1~input_o $end
$var wire 1 X D2~input_o $end
$var wire 1 Y LOAD_B~input_o $end
$var wire 1 Z F2~input_o $end
$var wire 1 [ LOAD_A~input_o $end
$var wire 1 \ inst3|inst2|36~0_combout $end
$var wire 1 ] inst3|inst2|35~0_combout $end
$var wire 1 ^ inst3|inst2|40~q $end
$var wire 1 _ inst3|inst2|35~1_combout $end
$var wire 1 ` inst3|inst2|39~q $end
$var wire 1 a inst3|inst2|34~0_combout $end
$var wire 1 b D0~input_o $end
$var wire 1 c inst3|inst2|34~1_combout $end
$var wire 1 d inst3|inst2|38~q $end
$var wire 1 e F0~input_o $end
$var wire 1 f F1~input_o $end
$var wire 1 g inst2|inst|sub|81~0_combout $end
$var wire 1 h inst2|inst|sub|81~1_combout $end
$var wire 1 i R0~input_o $end
$var wire 1 j R1~input_o $end
$var wire 1 k inst3|inst1|37~0_combout $end
$var wire 1 l inst3|inst1|37~1_combout $end
$var wire 1 m inst3|inst1|37~2_combout $end
$var wire 1 n inst3|inst1|35~0_combout $end
$var wire 1 o inst3|inst1|41~q $end
$var wire 1 p inst3|inst1|36~0_combout $end
$var wire 1 q inst3|inst1|40~q $end
$var wire 1 r inst3|inst1|35~1_combout $end
$var wire 1 s inst3|inst1|39~q $end
$var wire 1 t inst3|inst1|34~0_combout $end
$var wire 1 u inst3|inst1|34~1_combout $end
$var wire 1 v inst3|inst1|38~q $end
$var wire 1 w inst3|inst2|37~0_combout $end
$var wire 1 x inst3|inst2|37~1_combout $end
$var wire 1 y inst3|inst2|37~2_combout $end
$var wire 1 z inst3|inst2|41~q $end
$upscope $end
$upscope $end
$enddefinitions $end
#0
$dumpvars
0!
0"
0#
0$
0%
0&
0'
0(
0)
0*
0+
0,
0-
0.
0/
00
01
02
03
04
05
06
07
08
09
0:
1;
x<
1=
1>
1?
0@
0A
0B
0C
0D
0E
0F
0G
0H
0I
0J
0K
0L
0M
0N
0O
0P
0Q
0R
0S
0T
0U
0V
0W
0X
0Y
0Z
0[
0\
0]
0^
0_
0`
0a
0b
0c
0d
0e
0f
1g
0h
0i
0j
0k
1l
0m
0n
0o
0p
0q
0r
0s
0t
0u
0v
0w
0x
0y
0z
$end
#5000
1!
1L
#10000
1#
1"
0!
1W
1b
0L
#15000
1!
1L
#20000
0!
0L
#25000
1!
1L
#30000
1*
0!
1[
0L
1]
1c
1_
#35000
1!
1L
1d
1`
1F
1G
1w
14
13
1x
#40000
0!
0L
#45000
1!
1L
#50000
0#
0"
0*
0!
0W
0b
0[
0L
1a
0]
0_
0c
1y
1c
#55000
1!
1L
#60000
0!
0L
#65000
1!
1L
#70000
1%
1$
0!
1V
1X
0L
#75000
1!
1L
#80000
0!
0L
#85000
1!
1L
#90000
1*
0!
1[
0L
0a
1]
1\
0c
#95000
1!
1L
1z
0d
0`
1^
1E
0F
0G
1D
0w
11
04
03
12
0x
#100000
0!
0L
#105000
1!
1L
#110000
0%
0$
0*
0!
0V
0X
0[
0L
0]
0y
1_
#115000
1!
1L
#120000
0!
0L
#125000
1!
1L
#130000
0!
0L
#135000
1!
1L
#140000
0!
0L
#145000
1!
1L
#150000
1*
0!
1[
0L
1]
0_
0\
#155000
1!
1L
0z
0^
0E
0D
01
02
#160000
0!
0L
#165000
1!
1L
#170000
0*
0!
0[
0L
0]
#175000
1!
1L
#180000
0!
0L
#185000
1!
1L
#190000
1#
1"
0!
1W
1b
0L
#195000
1!
1L
#200000
0!
0L
#205000
1!
1L
#210000
1+
0!
1Y
0L
1n
0l
1u
1r
1m
0m
#215000
1!
1L
1v
1s
1J
1K
1k
18
17
#220000
0!
0L
#225000
1!
1L
#230000
0#
0"
0+
0!
0W
0b
0Y
0L
1t
0n
1l
0r
0u
1u
1m
#235000
1!
1L
#240000
0!
0L
#245000
1!
1L
#250000
1%
1$
0!
1V
1X
0L
#255000
1!
1L
#260000
0!
0L
#265000
1!
1L
#270000
1+
0!
1Y
0L
0t
1n
1p
0u
#275000
1!
1L
0v
0s
1q
1o
1H
1I
0J
0K
0k
08
07
16
15
#280000
0!
0L
#285000
1!
1L
#290000
0%
0$
0+
0!
0V
0X
0Y
0L
0n
1r
0m
#295000
1!
1L
#300000
0!
0L
#305000
1!
1L
#310000
0!
0L
#315000
1!
1L
#320000
0!
0L
#325000
1!
1L
#330000
1+
0!
1Y
0L
1n
0l
0r
0p
1m
0m
#335000
1!
1L
0q
0o
0H
0I
06
05
#340000
0!
0L
#345000
1!
1L
#350000
0+
0!
0Y
0L
0n
1l
#355000
1!
1L
#360000
0!
0L
#365000
1!
1L
#370000
0!
0L
#375000
1!
1L
#380000
0!
0L
#385000
1!
1L
#390000
0!
0L
#395000
1!
1L
#400000
1#
1%
1$
0!
1W
1V
1X
0L
#405000
1!
1L
#410000
0!
0L
#415000
1!
1L
#420000
1*
0!
1[
0L
1]
1y
1_
1\
#425000
1!
1L
1z
1`
1^
1E
1F
1D
11
13
12
#430000
0!
0L
#435000
1!
1L
#440000
1"
0%
0*
0!
1b
0V
0[
0L
0]
0y
#445000
1!
1L
#450000
0!
0L
#455000
1!
1L
#460000
1+
0!
1Y
0L
1n
0l
1u
1r
1p
1m
0m
#465000
1!
1L
1v
1s
1q
1I
1J
1K
1k
18
17
16
#470000
0!
0L
#475000
1!
1L
#480000
0#
0$
0"
0+
0!
0W
0X
0b
0Y
0L
1t
0n
1l
0p
0u
1u
1m
#485000
1!
1L
#490000
0!
0L
#495000
1!
1L
#500000
1&
0!
1M
0L
1T
1R
1N
#505000
1!
1L
1U
1S
1O
1B
1@
1C
1n
1a
1]
19
10
1.
0N
1P
1c
#510000
0!
0L
#515000
1!
1L
0z
0q
1o
1d
1Q
0O
0B
1A
1G
1H
0I
0D
1w
0g
01
06
15
14
1/
0.
0\
0r
1p
1N
1x
1h
1y
#520000
0!
0L
#525000
1!
1L
1z
0s
1q
0^
1O
1B
0E
1I
0J
1D
0t
11
07
16
02
1.
1\
1r
0_
0P
0N
0u
#530000
0!
0L
#535000
1!
1L
0v
1s
0`
1^
0Q
0O
0B
0A
1E
0F
1J
0K
1t
0k
1g
0a
08
17
03
12
0/
0.
1_
0T
0h
1u
0m
0c
#540000
0!
0L
#545000
1!
1L
1v
0o
0d
1`
0U
0C
1F
0G
0H
1K
0w
1k
0n
0]
18
05
04
13
09
0p
0x
1m
0y
#550000
0!
0L
#555000
1!
1L
#560000
0!
0L
#565000
1!
1L
#570000
0!
0L
#575000
1!
1L
#580000
0!
0L
#585000
1!
1L
#590000
0!
0L
#595000
1!
1L
#600000
1,
1%
1#
1$
0&
0!
1i
1V
1W
1X
0M
0L
0l
0R
0m
#605000
1!
1L
0S
0@
00
#610000
0!
0L
#615000
1!
1L
#620000
1*
0!
1[
0L
1]
1y
#625000
1!
1L
#630000
0!
0L
#635000
1!
1L
#640000
1"
0%
0*
0!
1b
0V
0[
0L
0]
0y
#645000
1!
1L
#650000
0!
0L
#655000
1!
1L
#660000
1+
0!
1Y
0L
0t
1n
1p
#665000
1!
1L
#670000
0!
0L
#675000
1!
1L
#680000
0#
0$
0"
0+
0!
0W
0X
0b
0Y
0L
1t
0n
0p
0u
1u
#685000
1!
1L
#690000
0!
0L
#695000
1!
1L
#700000
1&
0!
1M
0L
1T
1R
1N
#705000
1!
1L
1U
1S
1O
1B
1@
1C
1n
1a
1]
19
10
1.
0N
1P
1c
#710000
0!
0L
#715000
1!
1L
0z
0q
1d
1Q
0O
0B
1A
1G
0I
0D
1w
0g
01
06
14
1/
0.
0\
0r
1N
1x
1h
1y
1m
#720000
0!
0L
#725000
1!
1L
1z
0s
1o
0^
1O
1B
0E
1H
0J
1D
0t
11
07
15
02
1.
1\
1p
0_
0P
0N
0u
#730000
0!
0L
#735000
1!
1L
0v
1q
0`
1^
0Q
0O
0B
0A
1E
0F
1I
0K
1g
0a
08
16
03
12
0/
0.
1r
1_
0T
0h
0c
0m
#740000
0!
0L
#745000
1!
1L
1s
0o
0d
1`
0U
0C
1F
0G
0H
1J
0w
0n
0]
17
05
04
13
09
0p
0x
0y
#750000
0!
0L
#755000
1!
1L
#760000
0!
0L
#765000
1!
1L
#770000
0!
0L
#775000
1!
1L
#780000
0!
0L
#785000
1!
1L
#790000
0!
0L
#795000
1!
1L
#800000
1-
0,
1%
1#
1$
0&
0!
1j
0i
1V
1W
1X
0M
0L
1l
0k
0R
#805000
1!
1L
0S
0@
00
#810000
0!
0L
#815000
1!
1L
#820000
1*
0!
1[
0L
1]
1y
#825000
1!
1L
#830000
0!
0L
#835000
1!
1L
#840000
1"
0%
0*
0!
1b
0V
0[
0L
0]
0y
#845000
1!
1L
#850000
0!
0L
#855000
1!
1L
#860000
1+
0!
1Y
0L
1n
0l
1u
1p
1m
0m
#865000
1!
1L
1v
1K
1k
18
#870000
0!
0L
#875000
1!
1L
#880000
0#
0$
0"
0+
0!
0W
0X
0b
0Y
0L
1t
0n
1l
0p
0u
1u
1m
#885000
1!
1L
#890000
0!
0L
#895000
1!
1L
#900000
1&
0!
1M
0L
1T
1R
1N
#905000
1!
1L
1U
1S
1O
1B
1@
1C
1n
1a
1]
19
10
1.
0N
1P
1c
#910000
0!
0L
#915000
1!
1L
0z
0q
1o
1d
1Q
0O
0B
1A
1G
1H
0I
0D
0g
01
06
15
14
1/
0.
0\
0r
1p
1N
1h
1x
1y
#920000
0!
0L
#925000
1!
1L
1z
0s
1q
0^
1O
1B
0E
1I
0J
1D
0t
11
07
16
02
1.
1\
1r
0_
0P
0N
0u
#930000
0!
0L
#935000
1!
1L
0v
1s
0`
1^
0Q
0O
0B
0A
1E
0F
1J
0K
1t
0k
1g
0a
08
17
03
12
0/
0.
1_
0T
0h
1u
0m
0c
0x
0y
#940000
0!
0L
#945000
1!
1L
0z
1v
0o
0d
1`
0U
0C
1F
0G
0H
1K
0D
1k
0n
0]
01
18
05
04
13
09
0\
0p
1m
#950000
0!
0L
#955000
1!
1L
#960000
0!
0L
#965000
1!
1L
#970000
0!
0L
#975000
1!
1L
#980000
0!
0L
#985000
1!
1L
#990000
0!
0L
#995000
1!
1L
#1000000
1,
1%
1#
1$
0&
0!
1i
1V
1W
1X
0M
0L
1w
0k
0R
1x
0m
1y
#1005000
1!
1L
0S
0@
00
#1010000
0!
0L
#1015000
1!
1L
#1020000
1*
0!
1[
0L
1]
1\
#1025000
1!
1L
1z
1D
11
#1030000
0!
0L
#1035000
1!
1L
#1040000
1"
0%
0*
0!
1b
0V
0[
0L
0]
#1045000
1!
1L
#1050000
0!
0L
#1055000
1!
1L
#1060000
1+
0!
1Y
0L
0t
1n
0l
1p
1m
0m
#1065000
1!
1L
#1070000
0!
0L
#1075000
1!
1L
#1080000
0#
0$
0"
0+
0!
0W
0X
0b
0Y
0L
1t
0n
1l
0p
0u
1u
#1085000
1!
1L
#1090000
0!
0L
#1095000
1!
1L
#1100000
1&
0!
1M
0L
1T
1R
1N
#1105000
1!
1L
1U
1S
1O
1B
1@
1C
1n
1a
1]
19
10
1.
0N
1P
1c
#1110000
0!
0L
#1115000
1!
1L
0q
1d
1Q
0O
0B
1A
1G
0I
1k
0g
06
14
1/
0.
0r
1N
1h
1m
#1120000
0!
0L
#1125000
1!
1L
0s
1o
1O
1B
1H
0J
0t
07
15
1.
1p
0P
0N
0u
#1130000
0!
0L
#1135000
1!
1L
0v
1q
0Q
0O
0B
0A
1I
0K
0w
1g
08
16
0/
0.
1r
0T
0x
0h
0y
#1140000
0!
0L
#1145000
1!
1L
0z
1s
0U
0C
1J
0D
0n
0]
01
17
09
0\
#1150000
0!
0L
#1155000
1!
1L
#1160000
0!
0L
#1165000
1!
1L
#1170000
0!
0L
#1175000
1!
1L
#1180000
0!
0L
#1185000
1!
1L
#1190000
0!
0L
#1195000
1!
1L
#1200000
1'
0,
1%
1#
0&
0!
1e
0i
1V
1W
0M
0L
0g
0k
0R
1h
0m
1x
1y
#1205000
1!
1L
0S
0@
00
#1210000
0!
0L
#1215000
1!
1L
#1220000
1*
0!
1[
0L
0a
1]
0c
#1225000
1!
1L
1z
0d
0^
0E
0G
1D
1g
11
04
02
0h
0x
#1230000
0!
0L
#1235000
1!
1L
#1240000
1$
1"
0%
0*
0!
1X
1b
0V
0[
0L
0]
1\
0y
0_
#1245000
1!
1L
#1250000
0!
0L
#1255000
1!
1L
#1260000
1+
0!
1Y
0L
1n
0l
1u
1m
0m
#1265000
1!
1L
1v
0o
0H
1K
1k
0g
18
05
1h
1x
1y
#1270000
0!
0L
#1275000
1!
1L
#1280000
0#
0$
0"
0+
0!
0W
0X
0b
0Y
0L
1t
0n
1l
0p
0u
1m
1u
#1285000
1!
1L
#1290000
0!
0L
#1295000
1!
1L
#1300000
1&
0!
1M
0L
1T
1R
1N
#1305000
1!
1L
1U
1S
1O
1B
1@
1C
1n
1a
1]
19
10
1.
0N
1P
1c
#1310000
0!
0L
#1315000
1!
1L
0q
1o
1d
0`
1^
1Q
0O
0B
1A
1E
0F
1G
1H
0I
0a
06
15
14
03
12
1/
0.
0r
1p
1_
1N
0c
#1320000
0!
0L
#1325000
1!
1L
0s
1q
0d
1`
1O
1B
1F
0G
1I
0J
0t
1a
07
16
04
13
1.
1r
0P
0N
0u
1c
#1330000
0!
0L
#1335000
1!
1L
0v
1s
1d
0Q
0O
0B
0A
1G
1J
0K
1t
0k
08
17
14
0/
0.
0T
1u
0m
#1340000
0!
0L
#1345000
1!
1L
1v
0o
0U
0C
0H
1K
1k
0n
0]
18
05
09
0p
1m
#1350000
0!
0L
#1355000
1!
1L
#1360000
0!
0L
#1365000
1!
1L
#1370000
0!
0L
#1375000
1!
1L
#1380000
0!
0L
#1385000
1!
1L
#1390000
0!
0L
#1395000
1!
1L
#1400000
1(
0'
1%
1#
0&
0!
1f
0e
1V
1W
0M
0L
1g
0R
0h
0x
0y
#1405000
1!
1L
0S
0@
00
#1410000
0!
0L
#1415000
1!
1L
#1420000
1*
0!
1[
0L
0a
1]
1y
0\
0c
#1425000
1!
1L
0d
0^
0E
0G
0g
04
02
1h
1x
#1430000
0!
0L
#1435000
1!
1L
#1440000
1$
1"
0%
0*
0!
1X
1b
0V
0[
0L
0]
1\
0_
#1445000
1!
1L
#1450000
0!
0L
#1455000
1!
1L
#1460000
1+
0!
1Y
0L
0t
1n
0l
1p
0m
#1465000
1!
1L
#1470000
0!
0L
#1475000
1!
1L
#1480000
0#
0$
0"
0+
0!
0W
0X
0b
0Y
0L
1t
0n
1l
0p
0u
1m
1u
#1485000
1!
1L
#1490000
0!
0L
#1495000
1!
1L
#1500000
1&
0!
1M
0L
1T
1R
1N
#1505000
1!
1L
1U
1S
1O
1B
1@
1C
1n
1a
1]
19
10
1.
0N
1P
1c
#1510000
0!
0L
#1515000
1!
1L
0q
1o
1d
0`
1^
1Q
0O
0B
1A
1E
0F
1G
1H
0I
1g
0a
06
15
14
03
12
1/
0.
0r
1p
1_
1N
0h
0c
0x
0y
#1520000
0!
0L
#1525000
1!
1L
0z
0s
1q
0d
1`
1O
1B
1F
0G
1I
0J
0D
0t
0g
1a
01
07
16
04
13
1.
0\
1r
0P
0N
1h
0u
1c
1x
1y
#1530000
0!
0L
#1535000
1!
1L
1z
0v
1s
1d
0^
0Q
0O
0B
0A
0E
1G
1J
0K
1D
1t
0k
11
08
17
14
02
0/
0.
1\
0_
0T
1u
0m
#1540000
0!
0L
#1545000
1!
1L
1v
0o
0`
1^
0U
0C
1E
0F
0H
1K
1k
1g
0n
0]
18
05
03
12
09
0p
1_
0h
1m
0x
0y
#1550000
0!
0L
#1555000
1!
1L
#1560000
0!
0L
#1565000
1!
1L
#1570000
0!
0L
#1575000
1!
1L
#1580000
0!
0L
#1585000
1!
1L
#1590000
0!
0L
#1595000
1!
1L
#1600000
1'
1%
1#
0&
0!
1e
1V
1W
0M
0L
0g
0R
1h
1x
1y
#1605000
1!
1L
0S
0@
00
#1610000
0!
0L
#1615000
1!
1L
#1620000
1*
0!
1[
0L
0a
1]
0\
0c
#1625000
1!
1L
0d
1`
0^
0E
1F
0G
04
13
02
#1630000
0!
0L
#1635000
1!
1L
#1640000
1$
1"
0%
0*
0!
1X
1b
0V
0[
0L
0]
1\
0_
#1645000
1!
1L
#1650000
0!
0L
#1655000
1!
1L
#1660000
1+
0!
1Y
0L
0t
1n
0l
1p
0m
#1665000
1!
1L
#1670000
0!
0L
#1675000
1!
1L
#1680000
0#
0$
0"
0+
0!
0W
0X
0b
0Y
0L
1t
0n
1l
0p
0u
1m
1u
#1685000
1!
1L
#1690000
0!
0L
#1695000
1!
1L
#1700000
1&
0!
1M
0L
1T
1R
1N
#1705000
1!
1L
1U
1S
1O
1B
1@
1C
1n
1a
1]
19
10
1.
0N
1P
1c
#1710000
0!
0L
#1715000
1!
1L
0q
1o
1d
0`
1^
1Q
0O
0B
1A
1E
0F
1G
1H
0I
0a
06
15
14
03
12
1/
0.
0r
1p
1_
1N
0c
#1720000
0!
0L
#1725000
1!
1L
0s
1q
0d
1`
1O
1B
1F
0G
1I
0J
0t
1a
07
16
04
13
1.
1r
0P
0N
0u
1c
#1730000
0!
0L
#1735000
1!
1L
0v
1s
1d
0Q
0O
0B
0A
1G
1J
0K
1t
0k
08
17
14
0/
0.
0T
1u
0m
#1740000
0!
0L
#1745000
1!
1L
1v
0o
0U
0C
0H
1K
1k
0n
0]
18
05
09
0p
1m
#1750000
0!
0L
#1755000
1!
1L
#1760000
0!
0L
#1765000
1!
1L
#1770000
0!
0L
#1775000
1!
1L
#1780000
0!
0L
#1785000
1!
1L
#1790000
0!
0L
#1795000
1!
1L
#1800000
1)
0(
0'
1%
1#
0&
0!
1Z
0f
0e
1V
1W
0M
0L
0h
0R
0x
0y
#1805000
1!
1L
0S
0@
00
#1810000
0!
0L
#1815000
1!
1L
#1820000
1*
0!
1[
0L
0a
1]
1y
0\
0c
#1825000
1!
1L
0d
0^
0E
0G
1g
04
02
1h
1x
#1830000
0!
0L
#1835000
1!
1L
#1840000
1$
1"
0%
0*
0!
1X
1b
0V
0[
0L
0]
1\
0_
#1845000
1!
1L
#1850000
0!
0L
#1855000
1!
1L
#1860000
1+
0!
1Y
0L
0t
1n
0l
1p
0m
#1865000
1!
1L
#1870000
0!
0L
#1875000
1!
1L
#1880000
0#
0$
0"
0+
0!
0W
0X
0b
0Y
0L
1t
0n
1l
0p
0u
1m
1u
#1885000
1!
1L
#1890000
0!
0L
#1895000
1!
1L
#1900000
1&
0!
1M
0L
1T
1R
1N
#1905000
1!
1L
1U
1S
1O
1B
1@
1C
1n
1a
1]
19
10
1.
0N
1P
1c
#1910000
0!
0L
#1915000
1!
1L
0q
1o
1d
0`
1^
1Q
0O
0B
1A
1E
0F
1G
1H
0I
0g
0a
06
15
14
03
12
1/
0.
0r
1p
1_
1N
0h
0c
0x
0y
#1920000
0!
0L
#1925000
1!
1L
0z
0s
1q
0d
1`
1O
1B
1F
0G
1I
0J
0D
0t
1g
1a
01
07
16
04
13
1.
0\
1r
0P
0N
1h
0u
1c
1x
1y
#1930000
0!
0L
#1935000
1!
1L
1z
0v
1s
1d
0^
0Q
0O
0B
0A
0E
1G
1J
0K
1D
1t
0k
11
08
17
14
02
0/
0.
1\
0_
0T
1u
0m
#1940000
0!
0L
#1945000
1!
1L
1v
0o
0`
1^
0U
0C
1E
0F
0H
1K
1k
0g
0n
0]
18
05
03
12
09
0p
1_
0h
1m
0x
0y
#1950000
0!
0L
#1955000
1!
1L
#1960000
0!
0L
#1965000
1!
1L
#1970000
0!
0L
#1975000
1!
1L
#1980000
0!
0L
#1985000
1!
1L
#1990000
0!
0L
#1995000
1!
1L
#2000000
1'
1%
1#
0&
0!
1e
1V
1W
0M
0L
0R
#2005000
1!
1L
0S
0@
00
#2010000
0!
0L
#2015000
1!
1L
#2020000
1*
0!
1[
0L
0a
1]
1y
0\
0c
#2025000
1!
1L
0d
1`
0^
0E
1F
0G
04
13
02
#2030000
0!
0L
#2035000
1!
1L
#2040000
1$
1"
0%
0*
0!
1X
1b
0V
0[
0L
0]
1\
0y
0_
#2045000
1!
1L
#2050000
0!
0L
#2055000
1!
1L
#2060000
1+
0!
1Y
0L
0t
1n
0l
1p
0m
#2065000
1!
1L
#2070000
0!
0L
#2075000
1!
1L
#2080000
0#
0$
0"
0+
0!
0W
0X
0b
0Y
0L
1t
0n
1l
0p
0u
1u
1m
#2085000
1!
1L
#2090000
0!
0L
#2095000
1!
1L
#2100000
0!
0L
#2105000
1!
1L
#2110000
1&
0!
1M
0L
1T
1R
1N
#2115000
1!
1L
1U
1S
1O
1B
1@
1C
1n
1a
1]
19
10
1.
0N
1P
1c
#2120000
0!
0L
#2125000
1!
1L
0z
0q
1o
1d
0`
1^
1Q
0O
0B
1A
1E
0F
1G
1H
0I
0D
0a
01
06
15
14
03
12
1/
0.
0\
0r
1p
1_
1N
0c
#2130000
0!
0L
#2135000
1!
1L
0s
1q
0d
1`
0^
1O
1B
0E
1F
0G
1I
0J
0t
1a
07
16
04
13
02
1.
1r
0_
0P
0N
0u
1c
#2140000
0!
0L
#2145000
1!
1L
0v
1s
1d
0`
0Q
0O
0B
0A
0F
1G
1J
0K
1t
0k
0a
08
17
14
03
0/
0.
0T
1u
0m
0c
#2150000
0!
0L
#2155000
1!
1L
1v
0o
0d
0U
0C
0G
0H
1K
1k
0n
0]
18
05
04
09
0p
1m
#2160000
0!
0L
#2165000
1!
1L
#2170000
0!
0L
#2175000
1!
1L
#2180000
0!
0L
#2185000
1!
1L
#2190000
0!
0L
#2195000
1!
1L
#2200000
1(
0'
1%
1#
0&
0!
1f
0e
1V
1W
0M
0L
0R
#2205000
1!
1L
0S
0@
00
#2210000
0!
0L
#2215000
1!
1L
#2220000
1*
0!
1[
0L
1]
1y
1_
#2225000
1!
1L
1z
1`
1F
1D
11
13
#2230000
0!
0L
#2235000
1!
1L
#2240000
1$
1"
0%
0*
0!
1X
1b
0V
0[
0L
0]
1\
0y
0_
#2245000
1!
1L
#2250000
0!
0L
#2255000
1!
1L
#2260000
1+
0!
1Y
0L
0t
1n
0l
1p
0m
#2265000
1!
1L
#2270000
0!
0L
#2275000
1!
1L
#2280000
0#
0$
0"
0+
0!
0W
0X
0b
0Y
0L
1t
0n
1l
0p
0u
1u
1m
#2285000
1!
1L
#2290000
0!
0L
#2295000
1!
1L
#2300000
1&
0!
1M
0L
1T
1R
1N
#2305000
1!
1L
1U
1S
1O
1B
1@
1C
1n
1a
1]
19
10
1.
0N
1P
1c
#2310000
0!
0L
#2315000
1!
1L
0z
0q
1o
1d
0`
1^
1Q
0O
0B
1A
1E
0F
1G
1H
0I
0D
1g
0a
01
06
15
14
03
12
1/
0.
0\
0r
1p
1_
1N
1h
0c
1x
1y
#2320000
0!
0L
#2325000
1!
1L
1z
0s
1q
0d
1`
0^
1O
1B
0E
1F
0G
1I
0J
1D
0t
0g
1a
11
07
16
04
13
02
1.
1\
1r
0_
0P
0N
0h
0u
1c
0x
0y
#2330000
0!
0L
#2335000
1!
1L
0z
0v
1s
1d
0`
1^
0Q
0O
0B
0A
1E
0F
1G
1J
0K
0D
1t
0k
0a
01
08
17
14
03
12
0/
0.
0\
1_
0T
1u
0m
0c
#2340000
0!
0L
#2345000
1!
1L
1v
0o
0d
1`
0^
0U
0C
0E
1F
0G
0H
1K
1k
0n
0]
18
05
04
13
02
09
0p
0_
1m
#2350000
0!
0L
#2355000
1!
1L
#2360000
0!
0L
#2365000
1!
1L
#2370000
0!
0L
#2375000
1!
1L
#2380000
0!
0L
#2385000
1!
1L
#2390000
0!
0L
#2395000
1!
1L
#2400000
1'
1%
1#
0&
0!
1e
1V
1W
0M
0L
0R
#2405000
1!
1L
0S
0@
00
#2410000
0!
0L
#2415000
1!
1L
#2420000
1*
0!
1[
0L
1]
1y
1_
#2425000
1!
1L
1z
1D
11
#2430000
0!
0L
#2435000
1!
1L
#2440000
1$
1"
0%
0*
0!
1X
1b
0V
0[
0L
0]
1\
0y
0_
#2445000
1!
1L
#2450000
0!
0L
#2455000
1!
1L
#2460000
1+
0!
1Y
0L
0t
1n
0l
1p
0m
#2465000
1!
1L
#2470000
0!
0L
#2475000
1!
1L
#2480000
0#
0$
0"
0+
0!
0W
0X
0b
0Y
0L
1t
0n
1l
0p
0u
1u
1m
#2485000
1!
1L
#2490000
0!
0L
#2495000
1!
1L
#2500000
1&
0!
1M
0L
1T
1R
1N
#2505000
1!
1L
1U
1S
1O
1B
1@
1C
1n
1a
1]
19
10
1.
0N
1P
1c
#2510000
0!
0L
#2515000
1!
1L
0z
0q
1o
1d
0`
1^
1Q
0O
0B
1A
1E
0F
1G
1H
0I
0D
0a
01
06
15
14
03
12
1/
0.
0\
0r
1p
1_
1N
0c
#2520000
0!
0L
#2525000
1!
1L
0s
1q
0d
1`
0^
1O
1B
0E
1F
0G
1I
0J
0t
1a
07
16
04
13
02
1.
1r
0_
0P
0N
0u
1c
#2530000
0!
0L
#2535000
1!
1L
0v
1s
1d
0`
0Q
0O
0B
0A
0F
1G
1J
0K
1t
0k
0a
08
17
14
03
0/
0.
0T
1u
0m
0c
#2540000
0!
0L
#2545000
1!
1L
1v
0o
0d
0U
0C
0G
0H
1K
1k
0n
0]
18
05
04
09
0p
1m
#2550000
0!
0L
#2555000
1!
1L
#2560000
0!
0L
#2565000
1!
1L
#2570000
0!
0L
#2575000
1!
1L
#2580000
0!
0L
#2585000
1!
1L
#2590000
0!
0L
#2595000
1!
1L
#2599000
0)
0(
0'
0&
0Z
0f
0e
0M
1h
1g
0R
1x
0h
0x
1y
0y
#2600000
1%
1#
0!
1)
1(
1V
1W
1Z
1f
0L
1h
0g
1x
0h
0x
1y
0y
#2605000
1!
1L
0S
0@
00
#2610000
0!
0L
#2615000
1!
1L
#2620000
1*
0!
1[
0L
1]
1y
1_
#2625000
1!
1L
1z
1`
1F
1D
11
13
#2630000
0!
0L
#2635000
1!
1L
#2640000
1$
1"
0%
0*
0!
1X
1b
0V
0[
0L
0]
1\
0y
0_
#2645000
1!
1L
#2650000
0!
0L
#2655000
1!
1L
#2660000
1+
0!
1Y
0L
0t
1n
0l
1p
0m
#2665000
1!
1L
#2670000
0!
0L
#2675000
1!
1L
#2680000
0#
0$
0"
0+
0!
0W
0X
0b
0Y
0L
1t
0n
1l
0p
0u
1u
1m
#2685000
1!
1L
#2690000
0!
0L
#2695000
1!
1L
#2700000
1&
0!
1M
0L
1T
1R
1N
#2705000
1!
1L
1U
1S
1O
1B
1@
1C
1n
1a
1]
19
10
1.
0N
1P
1c
#2710000
0&
0!
0M
0L
#2715000
1!
1L
0z
0q
1o
1d
0`
1^
1Q
0O
0B
1A
1E
0F
1G
1H
0I
0D
1g
0a
01
06
15
14
03
12
1/
0.
0\
0r
1p
1_
1N
1h
0c
1x
1y
#2720000
0!
0L
#2725000
1!
1L
1z
0s
1q
0d
1`
0^
1O
1B
0E
1F
0G
1I
0J
1D
0t
0g
1a
11
07
16
04
13
02
1.
1\
1r
0_
0P
0N
0h
0u
1c
0x
0y
#2730000
0!
0L
#2735000
1!
1L
0z
0v
1s
1d
0`
1^
0Q
0O
0B
0A
1E
0F
1G
1J
0K
0D
1t
0k
0a
01
08
17
14
03
12
0/
0.
0\
1_
0T
0R
1u
0m
0c
#2740000
0!
0L
#2745000
1!
1L
1v
0o
0d
1`
0^
0U
0S
0@
0C
0E
1F
0G
0H
1K
1k
0n
0]
18
05
04
13
02
09
00
0p
0_
1m
#2750000
0!
0L
#2755000
1!
1L
#2760000
0!
0L
#2765000
1!
1L
#2770000
0!
0L
#2775000
1!
1L
#2780000
0!
0L
#2785000
1!
1L
#2790000
0!
0L
#2795000
1!
1L
